{
	"info": {
		"_postman_id": "05f27663-a3e0-4b81-bf71-818030e9a9d6",
		"name": "OrganizacionFinanciera",
		"description": "NTT Data - Examen 1",
		"schema": "https://schema.getpostman.com/json/collection/v2.0.0/collection.json",
		"_exporter_id": "25235721"
	},
	"item": [
		{
			"name": "Banco",
			"item": [
				{
					"name": "registrar",
					"request": {
						"method": "POST",
						"header": [],
						"body": {
							"mode": "raw",
							"raw": "{\r\n    \"nombre\" : \"ScotiaBank\"\r\n}",
							"options": {
								"raw": {
									"language": "json"
								}
							}
						},
						"url": "http://localhost:8081/api/banco/registrar"
					},
					"response": []
				},
				{
					"name": "listar",
					"request": {
						"method": "GET",
						"header": [],
						"url": "http://localhost:8081/api/banco/listar"
					},
					"response": []
				},
				{
					"name": "actualizar",
					"request": {
						"method": "PUT",
						"header": [],
						"body": {
							"mode": "raw",
							"raw": "{\r\n    \"nombre\" : \"Banco Nro 1\"\r\n}",
							"options": {
								"raw": {
									"language": "json"
								}
							}
						},
						"url": "http://localhost:8081/api/banco/actualizar/1"
					},
					"response": []
				},
				{
					"name": "eliminar",
					"request": {
						"method": "DELETE",
						"header": [],
						"url": "http://localhost:8081/api/banco/eliminar/4"
					},
					"response": []
				},
				{
					"name": "buscar",
					"request": {
						"method": "GET",
						"header": [],
						"url": "http://localhost:8081/api/banco/buscar/3"
					},
					"response": []
				},
				{
					"name": "filtrar nombre",
					"request": {
						"method": "GET",
						"header": [],
						"url": {
							"raw": "http://localhost:8081/api/banco/filtro?nombre=BCP",
							"protocol": "http",
							"host": [
								"localhost"
							],
							"port": "8081",
							"path": [
								"api",
								"banco",
								"filtro"
							],
							"query": [
								{
									"key": "nombre",
									"value": "BCP"
								}
							]
						},
						"description": "Filtro de nombre de banco usand quert nativa"
					},
					"response": []
				}
			]
		},
		{
			"name": "CuentaBancaria",
			"item": [
				{
					"name": "listar",
					"request": {
						"method": "GET",
						"header": [],
						"url": "http://localhost:8081/api/cuentabancaria/listar"
					},
					"response": []
				},
				{
					"name": "registrar",
					"request": {
						"method": "POST",
						"header": [],
						"body": {
							"mode": "raw",
							"raw": "{\r\n    \"nro_cuenta\": 6465484,\r\n    \"bancoId\": 483\r\n}",
							"options": {
								"raw": {
									"language": "json"
								}
							}
						},
						"url": "http://localhost:8081/api/cuentabancaria/registrar"
					},
					"response": []
				},
				{
					"name": "buscar",
					"request": {
						"method": "GET",
						"header": [],
						"url": "http://localhost:8081/api/cuentabancaria/buscar/4"
					},
					"response": []
				},
				{
					"name": "actualizar",
					"request": {
						"method": "PUT",
						"header": [],
						"body": {
							"mode": "raw",
							"raw": "{\r\n    \"nro_cuenta\": 11111,\r\n    \"bancoId\": 6\r\n}",
							"options": {
								"raw": {
									"language": "json"
								}
							}
						},
						"url": "http://localhost:8081/api/cuentabancaria/actualizar/5"
					},
					"response": []
				},
				{
					"name": "eliminar",
					"request": {
						"method": "DELETE",
						"header": [],
						"url": "http://localhost:8081/api/cuentabancaria/eliminar/2"
					},
					"response": []
				},
				{
					"name": "nroCuenta con JPQL",
					"request": {
						"method": "GET",
						"header": [],
						"url": {
							"raw": "http://localhost:8081/api/cuentabancaria/buscarPorNumero?nro_cuenta=6666",
							"protocol": "http",
							"host": [
								"localhost"
							],
							"port": "8081",
							"path": [
								"api",
								"cuentabancaria",
								"buscarPorNumero"
							],
							"query": [
								{
									"key": "nro_cuenta",
									"value": "6666"
								}
							]
						}
					},
					"response": []
				}
			]
		},
		{
			"name": "ContratoLaboral",
			"item": [
				{
					"name": "listar",
					"request": {
						"method": "GET",
						"header": [],
						"url": "http://localhost:8081/api/contrato/listar"
					},
					"response": []
				},
				{
					"name": "registrar",
					"request": {
						"method": "POST",
						"header": [],
						"body": {
							"mode": "raw",
							"raw": "{\r\n    \"sueldo_base\" : 28.50,\r\n    \"tipo_contrato\": 1\r\n}",
							"options": {
								"raw": {
									"language": "json"
								}
							}
						},
						"url": "http://localhost:8081/api/contrato/registrar"
					},
					"response": []
				},
				{
					"name": "actualizar",
					"request": {
						"method": "PUT",
						"header": [],
						"body": {
							"mode": "raw",
							"raw": "{\r\n    \"sueldo_base\" : 1025.00,\r\n    \"tipo_contrato\": 2\r\n}",
							"options": {
								"raw": {
									"language": "json"
								}
							}
						},
						"url": "http://localhost:8081/api/contrato/actualizar/1"
					},
					"response": []
				},
				{
					"name": "eliminar",
					"request": {
						"method": "DELETE",
						"header": [],
						"url": "http://localhost:8081/api/contrato/eliminar/1"
					},
					"response": []
				},
				{
					"name": "buscar",
					"request": {
						"method": "GET",
						"header": [],
						"url": "http://localhost:8081/api/contrato/buscar/2"
					},
					"response": []
				}
			]
		},
		{
			"name": "Empleado",
			"item": [
				{
					"name": "listar",
					"request": {
						"method": "GET",
						"header": [],
						"url": "http://localhost:8081/api/empleado/listar"
					},
					"response": []
				},
				{
					"name": "registrar",
					"request": {
						"method": "POST",
						"header": [],
						"body": {
							"mode": "raw",
							"raw": "{\r\n    \"nombres\" : \"Joel\",\r\n    \"apellidos\" : \"Aredo\",    \r\n    \"cuentaId\": 4,\r\n    \"contratoId\": 3\r\n}",
							"options": {
								"raw": {
									"language": "json"
								}
							}
						},
						"url": "http://localhost:8081/api/empleado/registrar"
					},
					"response": []
				},
				{
					"name": "actualizar",
					"request": {
						"method": "PUT",
						"header": [],
						"body": {
							"mode": "raw",
							"raw": "{\r\n    \"nombres\" : \"Pedro\",\r\n    \"apellidos\" : \"Ochoa\",    \r\n    \"cuentaId\": 5,\r\n    \"contratoId\": 2\r\n}",
							"options": {
								"raw": {
									"language": "json"
								}
							}
						},
						"url": "http://localhost:8081/api/empleado/actualizar/2"
					},
					"response": []
				},
				{
					"name": "buscar",
					"request": {
						"method": "GET",
						"header": [],
						"url": "http://localhost:8081/api/empleado/buscar/9"
					},
					"response": []
				},
				{
					"name": "eliminar",
					"request": {
						"method": "DELETE",
						"header": [],
						"url": "http://localhost:8081/api/empleado/eliminar/2"
					},
					"response": []
				}
			]
		},
		{
			"name": "Usuario",
			"item": [
				{
					"name": "listar",
					"request": {
						"method": "GET",
						"header": [],
						"url": "http://localhost:8081/api/usuario/listar"
					},
					"response": []
				},
				{
					"name": "registrar",
					"request": {
						"method": "POST",
						"header": [],
						"body": {
							"mode": "raw",
							"raw": "{\r\n    \"username\" : \"Renji\",\r\n    \"password\" : \"1666\",\r\n    \"active\" : true,\r\n    \"empleadoId\" : 3\r\n}",
							"options": {
								"raw": {
									"language": "json"
								}
							}
						},
						"url": "http://localhost:8081/api/usuario/registrar"
					},
					"response": []
				},
				{
					"name": "actualizar",
					"request": {
						"method": "PUT",
						"header": [],
						"body": {
							"mode": "raw",
							"raw": "{\r\n    \"username\" : \"Carlos\",\r\n    \"password\" : \"0654EEE\",\r\n    \"active\" : false,\r\n    \"empleadoId\" : 1\r\n}",
							"options": {
								"raw": {
									"language": "json"
								}
							}
						},
						"url": "http://localhost:8081/api/usuario/actualizar/1"
					},
					"response": []
				},
				{
					"name": "eliminar",
					"request": {
						"method": "DELETE",
						"header": [],
						"url": "http://localhost:8081/api/usuario/eliminar/1"
					},
					"response": []
				},
				{
					"name": "buscar",
					"request": {
						"method": "GET",
						"header": [],
						"url": "http://localhost:8081/api/usuario/buscar/1"
					},
					"response": []
				}
			]
		},
		{
			"name": "Rol",
			"item": [
				{
					"name": "listar",
					"request": {
						"method": "GET",
						"header": [],
						"url": "http://localhost:8081/api/rol/listar"
					},
					"response": []
				},
				{
					"name": "registrar",
					"request": {
						"method": "POST",
						"header": [],
						"body": {
							"mode": "raw",
							"raw": "{\r\n    \"nombre\" : \"vendedor\"\r\n}",
							"options": {
								"raw": {
									"language": "json"
								}
							}
						},
						"url": "http://localhost:8081/api/rol/registrar"
					},
					"response": []
				},
				{
					"name": "actualizar",
					"request": {
						"method": "PUT",
						"header": [],
						"body": {
							"mode": "raw",
							"raw": "{\r\n    \"nombre\" : \"cajero\"\r\n}",
							"options": {
								"raw": {
									"language": "json"
								}
							}
						},
						"url": "http://localhost:8081/api/rol/actualizar/1"
					},
					"response": []
				},
				{
					"name": "buscar",
					"request": {
						"method": "GET",
						"header": [],
						"url": "http://localhost:8081/api/rol/buscar/1"
					},
					"response": []
				},
				{
					"name": "eliminar",
					"request": {
						"method": "DELETE",
						"header": [],
						"url": "http://localhost:8081/api/rol/eliminar/112"
					},
					"response": []
				}
			]
		}
	]
}